{"reports":[{"id":"8b951efc-efa3-4829-adf4-cccacd886270","name":"send-reminder-email","type":"ui","status":"failed","duration":88986,"totalActions":27,"passedActions":26,"failedActions":1,"reportPath":"C:\\Users\\Prismforce_ai\\Veriflow.ai\\ai-agent\\reports\\output\\Send-Reminder-Email_2026-03-15_14-59-30.html","startedAt":"2026-03-15T03:58:05.175Z","completedAt":"2026-03-15T03:59:34.279Z","passRate":96},{"id":"1b865ac7-48a0-4648-8ba7-0a40dc326df8","name":"full-assessment-flow","type":"ui","status":"passed","duration":115921,"totalActions":68,"passedActions":68,"failedActions":0,"reportPath":"C:\\Users\\Prismforce_ai\\Veriflow.ai\\ai-agent\\reports\\output\\Full-Assessment-Flow_2026-03-15_14-59-18.html","startedAt":"2026-03-15T03:57:26.512Z","completedAt":"2026-03-15T03:59:22.579Z","passRate":100},{"id":"1501b156-59aa-464e-aae4-524b759cf0e9","name":"send-invite-email","type":"ui","status":"passed","duration":31875,"totalActions":34,"passedActions":34,"failedActions":0,"reportPath":"C:\\Users\\Prismforce_ai\\Veriflow.ai\\ai-agent\\reports\\output\\Send-Invite-Email_2026-03-15_14-57-21.html","startedAt":"2026-03-15T03:56:54.183Z","completedAt":"2026-03-15T03:57:25.888Z","passRate":100},{"id":"6a014af6-2447-4a94-9c44-0d7440c5313e","name":"send-invite-email","type":"ui","status":"passed","duration":32761,"totalActions":34,"passedActions":34,"failedActions":0,"reportPath":"C:\\Users\\Prismforce_ai\\Veriflow.ai\\ai-agent\\reports\\output\\Send-Invite-Email_2026-03-15_14-53-29.html","startedAt":"2026-03-15T03:53:00.417Z","completedAt":"2026-03-15T03:53:33.158Z","passRate":100},{"id":"48c58e2a-a070-4edf-a713-eadadb661ee5","name":"send-invite-email","type":"ui","status":"passed","duration":34424,"totalActions":34,"passedActions":34,"failedActions":0,"reportPath":"C:\\Users\\Prismforce_ai\\Veriflow.ai\\ai-agent\\reports\\output\\Send-Invite-Email_2026-03-15_14-52-38.html","startedAt":"2026-03-15T03:52:08.574Z","completedAt":"2026-03-15T03:52:42.869Z","passRate":100},{"id":"390d96eb-18b0-42f8-8725-49fe7930ba98","name":"send-invite-email","type":"ui","status":"failed","duration":92990,"totalActions":29,"passedActions":28,"failedActions":1,"reportPath":"C:\\Users\\Prismforce_ai\\Veriflow.ai\\ai-agent\\reports\\output\\Send-Invite-Email_2026-03-15_14-47-37.html","startedAt":"2026-03-15T03:46:08.066Z","completedAt":"2026-03-15T03:47:41.174Z","passRate":97},{"id":"6988c8e0-a8f9-43ae-88eb-c3a88ef29386","name":"full-assessment-flow","type":"ui","status":"passed","duration":111995,"totalActions":68,"passedActions":68,"failedActions":0,"reportPath":"C:\\Users\\Prismforce_ai\\Veriflow.ai\\ai-agent\\reports\\output\\Full-Assessment-Flow_2026-03-15_14-47-00.html","startedAt":"2026-03-15T03:45:12.156Z","completedAt":"2026-03-15T03:47:04.305Z","passRate":100},{"id":"937c4041-bafc-4de3-a25c-c4436f1ad192","name":"send-invite-email","type":"ui","status":"failed","duration":16024,"totalActions":9,"passedActions":8,"failedActions":1,"reportPath":"C:\\Users\\Prismforce_ai\\Veriflow.ai\\ai-agent\\reports\\output\\Send-Invite-Email_2026-03-15_14-32-23.html","startedAt":"2026-03-15T03:32:12.041Z","completedAt":"2026-03-15T03:32:28.181Z","passRate":89},{"id":"eae72c46-923e-4e88-a19d-cba82654c648","name":"full-assessment-flow","type":"ui","status":"passed","duration":168554,"totalActions":68,"passedActions":68,"failedActions":0,"reportPath":"C:\\Users\\Prismforce_ai\\Veriflow.ai\\ai-agent\\reports\\output\\Full-Assessment-Flow_2026-03-15_11-18-04.html","startedAt":"2026-03-15T00:15:39.171Z","completedAt":"2026-03-15T00:18:27.869Z","passRate":100},{"id":"6b1d3cf8-eb43-4a05-bd45-41a14de8c909","name":"send-invite-email","type":"ui","status":"passed","duration":57235,"totalActions":34,"passedActions":34,"failedActions":0,"reportPath":"C:\\Users\\Prismforce_ai\\Veriflow.ai\\ai-agent\\reports\\output\\Send-Invite-Email_2026-03-15_11-07-45.html","startedAt":"2026-03-15T00:06:56.980Z","completedAt":"2026-03-15T00:07:54.399Z","passRate":100},{"id":"7144556b-35d2-441f-a6fc-cec21853ed53","name":"full-assessment-flow","type":"ui","status":"passed","duration":140064,"totalActions":68,"passedActions":68,"failedActions":0,"reportPath":"C:\\Users\\Prismforce_ai\\Veriflow.ai\\ai-agent\\reports\\output\\Full-Assessment-Flow_2026-03-15_11-05-49.html","startedAt":"2026-03-15T00:03:38.025Z","completedAt":"2026-03-15T00:05:58.240Z","passRate":100},{"id":"ba9962b1-c754-46eb-bb26-d407009020ab","name":"e2e-complete-workflow","type":"api","status":"passed","duration":10647,"totalActions":1,"passedActions":1,"failedActions":0,"reportPath":null,"startedAt":"2026-03-14T04:12:56.268Z","completedAt":"2026-03-14T04:13:07.080Z","passRate":100},{"id":"4c2336d6-c4e9-4031-be4d-9e4adfdd1334","name":"send-invite-email","type":"ui","status":"passed","duration":36181,"totalActions":34,"passedActions":34,"failedActions":0,"reportPath":"C:\\Users\\Prismforce_ai\\Veriflow.ai\\ai-agent\\reports\\output\\Send-Invite-Email_2026-03-14_15-12-08.html","startedAt":"2026-03-14T04:11:35.352Z","completedAt":"2026-03-14T04:12:11.698Z","passRate":100},{"id":"2fc2faca-4610-46b7-9adc-c8fc5f37cc38","name":"send-invite-email","type":"ui","status":"passed","duration":37952,"totalActions":34,"passedActions":34,"failedActions":0,"reportPath":"C:\\Users\\Prismforce_ai\\Veriflow.ai\\ai-agent\\reports\\output\\Send-Invite-Email_2026-03-14_15-01-41.html","startedAt":"2026-03-14T04:01:06.861Z","completedAt":"2026-03-14T04:01:44.986Z","passRate":100},{"id":"ca1cff22-569a-42f5-8300-87ac6e583373","name":"send-invite-email","type":"ui","status":"passed","duration":35815,"totalActions":34,"passedActions":34,"failedActions":0,"reportPath":"C:\\Users\\Prismforce_ai\\Veriflow.ai\\ai-agent\\reports\\output\\Send-Invite-Email_2026-03-14_14-59-00.html","startedAt":"2026-03-14T03:58:27.652Z","completedAt":"2026-03-14T03:59:03.629Z","passRate":100},{"id":"86d0f74d-a68b-4796-b3b7-f8c2c00880a7","name":"send-invite-email","type":"ui","status":"failed","duration":12127,"totalActions":0,"passedActions":0,"failedActions":0,"reportPath":null,"startedAt":"2026-03-14T03:54:18.066Z","completedAt":"2026-03-14T03:54:30.252Z","passRate":0},{"id":"ea7bb4c1-d7f6-4d57-bb01-bf828e079360","name":"full-assessment-flow","type":"ui","status":"passed","duration":121529,"totalActions":68,"passedActions":68,"failedActions":0,"reportPath":"C:\\Users\\Prismforce_ai\\Veriflow.ai\\ai-agent\\reports\\output\\Full-Assessment-Flow_2026-03-14_14-32-41.html","startedAt":"2026-03-14T03:30:43.036Z","completedAt":"2026-03-14T03:32:44.729Z","passRate":100},{"id":"ec988c5c-be84-42f2-a38e-50433b471da9","name":"full-assessment-flow","type":"ui","status":"passed","duration":117938,"totalActions":68,"passedActions":68,"failedActions":0,"reportPath":"C:\\Users\\Prismforce_ai\\Veriflow.ai\\ai-agent\\reports\\output\\Full-Assessment-Flow_2026-03-14_14-25-12.html","startedAt":"2026-03-14T03:23:17.295Z","completedAt":"2026-03-14T03:25:15.408Z","passRate":100},{"id":"9b1ca1f0-08e9-4b73-b67d-7d4accda6be8","name":"full-assessment-flow","type":"ui","status":"passed","duration":121219,"totalActions":68,"passedActions":68,"failedActions":0,"reportPath":"C:\\Users\\Prismforce_ai\\Veriflow.ai\\ai-agent\\reports\\output\\Full-Assessment-Flow_2026-03-14_14-22-57.html","startedAt":"2026-03-14T03:20:58.898Z","completedAt":"2026-03-14T03:23:00.279Z","passRate":100},{"id":"0dfdaec5-701f-4874-8753-9006bd47f985","name":"send-invite-email","type":"ui","status":"passed","duration":37948,"totalActions":34,"passedActions":34,"failedActions":0,"reportPath":"C:\\Users\\Prismforce_ai\\Veriflow.ai\\ai-agent\\reports\\output\\Send-Invite-Email_2026-03-14_14-21-40.html","startedAt":"2026-03-14T03:21:05.434Z","completedAt":"2026-03-14T03:21:43.547Z","passRate":100},{"id":"d5e081c6-89d7-4d02-a3d1-fa8d3dc6437b","name":"send-invite-email","type":"ui","status":"passed","duration":35708,"totalActions":34,"passedActions":34,"failedActions":0,"reportPath":"C:\\Users\\Prismforce_ai\\Veriflow.ai\\ai-agent\\reports\\output\\Send-Invite-Email_2026-03-14_14-05-26.html","startedAt":"2026-03-14T03:04:53.760Z","completedAt":"2026-03-14T03:05:29.648Z","passRate":100},{"id":"3af5aa7b-a42c-4cb7-b5f6-cc5a3df412fb","name":"full-assessment-flow","type":"ui","status":"passed","duration":109963,"totalActions":68,"passedActions":68,"failedActions":0,"reportPath":"C:\\Users\\Prismforce_ai\\Veriflow.ai\\ai-agent\\reports\\output\\Full-Assessment-Flow_2026-03-14_14-04-21.html","startedAt":"2026-03-14T03:02:34.684Z","completedAt":"2026-03-14T03:04:24.812Z","passRate":100},{"id":"394438ea-26f3-4a6b-849d-80a9794408a6","name":"send-invite-email","type":"ui","status":"failed","duration":93694,"totalActions":29,"passedActions":28,"failedActions":1,"reportPath":"C:\\Users\\Prismforce_ai\\Veriflow.ai\\ai-agent\\reports\\output\\Send-Invite-Email_2026-03-14_14-00-26.html","startedAt":"2026-03-14T02:58:54.937Z","completedAt":"2026-03-14T03:00:28.899Z","passRate":97},{"id":"fb6e2c4f-5547-4d34-b329-d7f4039120b8","name":"full-assessment-flow","type":"ui","status":"passed","duration":118768,"totalActions":68,"passedActions":68,"failedActions":0,"reportPath":"C:\\Users\\Prismforce_ai\\Veriflow.ai\\ai-agent\\reports\\output\\Full-Assessment-Flow_2026-03-14_13-59-57.html","startedAt":"2026-03-14T02:58:01.664Z","completedAt":"2026-03-14T03:00:00.600Z","passRate":100},{"id":"375c13c4-afc5-42f0-95a2-673cae64a99b","name":"full-assessment-flow","type":"ui","status":"failed","duration":23699,"totalActions":0,"passedActions":0,"failedActions":0,"reportPath":null,"startedAt":"2026-03-14T02:44:16.979Z","completedAt":"2026-03-14T02:44:40.711Z","passRate":0},{"id":"9d2623ef-322b-4242-bd2f-2a8e6bfea85e","name":"full-assessment-flow","type":"ui","status":"passed","duration":103012,"totalActions":68,"passedActions":68,"failedActions":0,"reportPath":"C:\\Users\\Prismforce_ai\\Veriflow.ai\\ai-agent\\reports\\output\\Full-Assessment-Flow_2026-03-14_13-43-01.html","startedAt":"2026-03-14T02:41:21.569Z","completedAt":"2026-03-14T02:43:04.751Z","passRate":100},{"id":"987c6ac0-3a4a-4063-82ed-04a42c91fd0b","name":"send-invite-email","type":"ui","status":"failed","duration":90611,"totalActions":29,"passedActions":28,"failedActions":1,"reportPath":"C:\\Users\\Prismforce_ai\\Veriflow.ai\\ai-agent\\reports\\output\\Send-Invite-Email_2026-03-14_13-40-14.html","startedAt":"2026-03-14T02:38:45.795Z","completedAt":"2026-03-14T02:40:16.565Z","passRate":97},{"id":"50752989-f7f9-4856-8426-9feb36e1dc9a","name":"send-invite-email","type":"ui","status":"failed","duration":32724,"totalActions":0,"passedActions":0,"failedActions":0,"reportPath":null,"startedAt":"2026-03-14T02:27:39.256Z","completedAt":"2026-03-14T02:28:12.146Z","passRate":0},{"id":"43de3830-d162-4132-9304-e5d16e427f2d","name":"send-invite-email","type":"ui","status":"failed","duration":90113,"totalActions":29,"passedActions":28,"failedActions":1,"reportPath":"C:\\Users\\Prismforce_ai\\Veriflow.ai\\ai-agent\\reports\\output\\Send-Invite-Email_2026-03-14_13-24-50.html","startedAt":"2026-03-14T02:23:23.258Z","completedAt":"2026-03-14T02:24:53.538Z","passRate":97},{"id":"b3f223e4-1220-4873-b752-9fc3a309eb29","name":"send-invite-email","type":"ui","status":"failed","duration":91950,"totalActions":29,"passedActions":28,"failedActions":1,"reportPath":"C:\\Users\\Prismforce_ai\\Veriflow.ai\\ai-agent\\reports\\output\\Send-Invite-Email_2026-03-14_13-18-51.html","startedAt":"2026-03-14T02:17:22.031Z","completedAt":"2026-03-14T02:18:54.145Z","passRate":97},{"id":"338939ba-e240-4eb3-aa44-18e25504a853","name":"reset-interview","type":"ui","status":"failed","duration":300242,"totalActions":23,"passedActions":23,"failedActions":0,"reportPath":"C:\\Users\\Prismforce_ai\\Veriflow.ai\\ai-agent\\reports\\output\\Reset-Interview_2026-03-14_13-03-12.html","startedAt":"2026-03-14T02:01:59.353Z","completedAt":"2026-03-14T02:06:59.632Z","passRate":100},{"id":"c7fb6150-ac80-4a42-b241-1531eba7ac07","name":"send-reminder-email","type":"ui","status":"failed","duration":300235,"totalActions":31,"passedActions":31,"failedActions":0,"reportPath":"C:\\Users\\Prismforce_ai\\Veriflow.ai\\ai-agent\\reports\\output\\Send-Reminder-Email_2026-03-14_13-02-28.html","startedAt":"2026-03-14T02:01:55.637Z","completedAt":"2026-03-14T02:06:55.906Z","passRate":100},{"id":"3d40d5d8-8556-4791-afe7-cd28fa66d226","name":"send-invite-email","type":"ui","status":"failed","duration":300127,"totalActions":34,"passedActions":34,"failedActions":0,"reportPath":"C:\\Users\\Prismforce_ai\\Veriflow.ai\\ai-agent\\reports\\output\\Send-Invite-Email_2026-03-14_13-02-31.html","startedAt":"2026-03-14T02:01:54.441Z","completedAt":"2026-03-14T02:06:54.742Z","passRate":100},{"id":"f66f9dcf-2235-4f6c-ac8a-398ca0fb6ae3","name":"attach-candidate-to-assessment","type":"api","status":"passed","duration":8413,"totalActions":1,"passedActions":1,"failedActions":0,"reportPath":null,"startedAt":"2026-03-14T02:04:22.261Z","completedAt":"2026-03-14T02:04:30.708Z","passRate":100},{"id":"aebff2f8-ab13-4bbe-bb30-38705058557d","name":"create-candidate","type":"api","status":"passed","duration":7683,"totalActions":1,"passedActions":1,"failedActions":0,"reportPath":null,"startedAt":"2026-03-14T02:04:10.531Z","completedAt":"2026-03-14T02:04:18.250Z","passRate":100},{"id":"ad982fc0-5be8-4f59-ab32-adee783b91a4","name":"create-assessment","type":"api","status":"passed","duration":7050,"totalActions":1,"passedActions":1,"failedActions":0,"reportPath":null,"startedAt":"2026-03-14T02:03:59.606Z","completedAt":"2026-03-14T02:04:06.690Z","passRate":100},{"id":"45969b59-fc0a-475b-abe2-d44926d513d3","name":"e2e-complete-workflow","type":"api","status":"passed","duration":11074,"totalActions":1,"passedActions":1,"failedActions":0,"reportPath":null,"startedAt":"2026-03-14T02:03:41.370Z","completedAt":"2026-03-14T02:03:52.629Z","passRate":100},{"id":"78772833-c5df-45e0-97a5-7e68366a6ad0","name":"full-assessment-flow","type":"ui","status":"failed","duration":99154,"totalActions":0,"passedActions":0,"failedActions":0,"reportPath":null,"startedAt":"2026-03-14T02:01:53.185Z","completedAt":"2026-03-14T02:03:32.374Z","passRate":0},{"id":"9e4897a9-e29f-4fdb-8128-2a8363967231","name":"send-reminder-ivr","type":"ui","status":"failed","duration":87893,"totalActions":0,"passedActions":0,"failedActions":0,"reportPath":null,"startedAt":"2026-03-14T02:01:56.889Z","completedAt":"2026-03-14T02:03:24.814Z","passRate":0},{"id":"ef102bad-297b-42b8-9171-6ca9091f9367","name":"extend-interview-expiry","type":"ui","status":"failed","duration":85708,"totalActions":0,"passedActions":0,"failedActions":0,"reportPath":null,"startedAt":"2026-03-14T02:01:58.121Z","completedAt":"2026-03-14T02:03:23.866Z","passRate":0},{"id":"f1466354-ab42-4c23-8788-7a87836a835f","name":"send-invite-email","type":"ui","status":"failed","duration":27485,"totalActions":0,"passedActions":0,"failedActions":0,"reportPath":null,"startedAt":"2026-03-14T02:00:22.424Z","completedAt":"2026-03-14T02:00:50.071Z","passRate":0},{"id":"cda981c0-e139-4b4b-8a75-e9c32bf96987","name":"send-invite-email","type":"ui","status":"failed","duration":300223,"totalActions":34,"passedActions":34,"failedActions":0,"reportPath":"C:\\Users\\Prismforce_ai\\Veriflow.ai\\ai-agent\\reports\\output\\Send-Invite-Email_2026-03-14_12-53-08.html","startedAt":"2026-03-14T01:52:35.556Z","completedAt":"2026-03-14T01:57:35.944Z","passRate":100},{"id":"c140f86c-d51b-4cf8-8096-56a11e291d06","name":"reset-interview","type":"ui","status":"failed","duration":null,"totalActions":null,"passedActions":null,"failedActions":null,"reportPath":null,"startedAt":"2026-03-14T01:55:51.055Z","completedAt":"2026-03-14T01:55:54.335Z","passRate":0},{"id":"f0bad5b4-2284-4a0f-83ac-c24d7f0ea073","name":"extend-interview-expiry","type":"ui","status":"failed","duration":null,"totalActions":null,"passedActions":null,"failedActions":null,"reportPath":null,"startedAt":"2026-03-14T01:55:49.803Z","completedAt":"2026-03-14T01:55:53.087Z","passRate":0},{"id":"85eed430-cebb-410a-b0a8-426833d8c2b0","name":"send-reminder-ivr","type":"ui","status":"failed","duration":null,"totalActions":null,"passedActions":null,"failedActions":null,"reportPath":null,"startedAt":"2026-03-14T01:55:48.583Z","completedAt":"2026-03-14T01:55:51.823Z","passRate":0},{"id":"658210d1-e603-4ab0-81b7-4c930b3f9807","name":"send-reminder-email","type":"ui","status":"failed","duration":null,"totalActions":null,"passedActions":null,"failedActions":null,"reportPath":null,"startedAt":"2026-03-14T01:55:47.307Z","completedAt":"2026-03-14T01:55:50.611Z","passRate":0},{"id":"3e3cd6be-23e4-4f9c-af7f-ee4e7a5cf118","name":"full-assessment-flow","type":"ui","status":"failed","duration":null,"totalActions":null,"passedActions":null,"failedActions":null,"reportPath":null,"startedAt":"2026-03-14T01:53:07.884Z","completedAt":"2026-03-14T01:53:11.120Z","passRate":0},{"id":"c272f6c1-726f-49f9-84b0-9f39d3697113","name":"send-invite-email","type":"ui","status":"failed","duration":15587,"totalActions":0,"passedActions":0,"failedActions":0,"reportPath":null,"startedAt":"2026-03-14T01:52:14.870Z","completedAt":"2026-03-14T01:52:30.616Z","passRate":0},{"id":"fcec264c-2993-4bd3-86e7-780dc8a6ed22","name":"send-invite-email","type":"ui","status":"failed","duration":null,"totalActions":null,"passedActions":null,"failedActions":null,"reportPath":null,"startedAt":"2026-03-14T01:36:47.657Z","completedAt":"2026-03-14T01:36:50.875Z","passRate":0},{"id":"0779ef5e-d715-4b26-a52f-a5714e687165","name":"full-assessment-flow","type":"ui","status":"failed","duration":300143,"totalActions":68,"passedActions":68,"failedActions":0,"reportPath":"C:\\Users\\Prismforce_ai\\Veriflow.ai\\ai-agent\\reports\\output\\Full-Assessment-Flow_2026-03-14_12-10-13.html","startedAt":"2026-03-14T01:08:15.710Z","completedAt":"2026-03-14T01:13:16.040Z","passRate":100}],"pagination":{"total":80,"limit":50,"offset":0,"hasMore":true}}